\babel@toc {czech}{}
\babel@toc {czech}{}
\babel@toc {english}{}
\babel@toc {czech}{}
\contentsline {figure}{\numberline {1}{\ignorespaces Blokové schéma zařízení\relax }}{19}{figure.caption.7}% 
\contentsline {figure}{\numberline {1.1}{\ignorespaces Blokové schéma šupiny\relax }}{22}{figure.caption.12}% 
\contentsline {figure}{\numberline {1.2}{\ignorespaces Blokové schéma napájecí části\relax }}{24}{figure.caption.16}% 
\contentsline {figure}{\numberline {1.3}{\ignorespaces Vliv $V_{bias}$ na zvlnění\cite {ldo} \relax }}{25}{figure.caption.20}% 
\contentsline {figure}{\numberline {1.4}{\ignorespaces 3.3V zdroj pro FPGA modul \relax }}{27}{figure.caption.26}% 
\contentsline {figure}{\numberline {1.5}{\ignorespaces Napětí(zelená) a proud(modrá) na výstupu LT8640\relax }}{28}{figure.caption.33}% 
\contentsline {figure}{\numberline {1.6}{\ignorespaces 1 fáze LT3829 v konfiguraci DCR sensing\relax }}{29}{figure.caption.35}% 
\contentsline {figure}{\numberline {1.7}{\ignorespaces simulace pro skokovou zátěž. Napětí(zelená) a proud(modrá)\relax }}{29}{figure.caption.36}% 
\contentsline {figure}{\numberline {1.8}{\ignorespaces Celková účinnost\relax }}{30}{figure.caption.37}% 
\contentsline {figure}{\numberline {2.1}{\ignorespaces Red pitaya s modulem pro PHpix modul\relax }}{31}{figure.caption.39}% 
\contentsline {figure}{\numberline {2.2}{\ignorespaces Stavový automat pro PHpix komunikaci\relax }}{32}{figure.caption.41}% 
\contentsline {figure}{\numberline {2.3}{\ignorespaces Simulace vysílací části\relax }}{33}{figure.caption.42}% 
\contentsline {figure}{\numberline {2.4}{\ignorespaces Simulace příjmací části\relax }}{33}{figure.caption.43}% 
\contentsline {figure}{\numberline {2.5}{\ignorespaces Blokové schéma rozhraní pro PHpix\relax }}{34}{figure.caption.45}% 
\contentsline {figure}{\numberline {2.6}{\ignorespaces Picoblaze\relax }}{35}{figure.caption.46}% 
\contentsline {figure}{\numberline {2.7}{\ignorespaces Princip MMU\relax }}{36}{figure.caption.48}% 
\contentsline {figure}{\numberline {2.8}{\ignorespaces Síťový klient pro příjem dat\relax }}{38}{figure.caption.83}% 
