\relax 
\providecommand\hyper@newdestlabel[2]{}
\bibcite{Janoska2019}{1}
\bibcite{Janoska2018}{2}
\bibcite{ldo}{3}
\bibcite{ldo2}{4}
\bibcite{fpgapow}{5}
\bibcite{pylib}{6}
\@writefile{toc}{\contentsline {chapter}{Literatura}{41}{section*.87}\protected@file@percent }
\@setckpt{text/literatura}{
\setcounter{page}{42}
\setcounter{equation}{0}
\setcounter{enumi}{0}
\setcounter{enumii}{0}
\setcounter{enumiii}{0}
\setcounter{enumiv}{6}
\setcounter{footnote}{0}
\setcounter{mpfootnote}{0}
\setcounter{part}{0}
\setcounter{chapter}{2}
\setcounter{section}{3}
\setcounter{subsection}{0}
\setcounter{subsubsection}{0}
\setcounter{paragraph}{0}
\setcounter{subparagraph}{0}
\setcounter{figure}{8}
\setcounter{table}{0}
\setcounter{Item}{0}
\setcounter{Hfootnote}{0}
\setcounter{bookmark@seq@number}{15}
\setcounter{AM@survey}{0}
\setcounter{caption@flags}{0}
\setcounter{ContinuedFloat}{0}
\setcounter{subfigure}{0}
\setcounter{subtable}{0}
\setcounter{lstnumber}{22}
\setcounter{section@level}{1}
\setcounter{lstlisting}{0}
}
