\relax 
\providecommand\hyper@newdestlabel[2]{}
\@writefile{toc}{\contentsline {chapter}{\numberline {A}Schéma napájení }{48}{chapter.92}\protected@file@percent }
\@writefile{toa}{\contentsline {chapter}{\numberline {A}Schéma napájení }{48}{chapter.92}\protected@file@percent }
\@writefile{toc}{\contentsline {chapter}{\numberline {B}FPGA diagram }{55}{chapter.93}\protected@file@percent }
\@writefile{toa}{\contentsline {chapter}{\numberline {B}FPGA diagram }{55}{chapter.93}\protected@file@percent }
\@setckpt{text/prilohy}{
\setcounter{page}{56}
\setcounter{equation}{0}
\setcounter{enumi}{0}
\setcounter{enumii}{0}
\setcounter{enumiii}{0}
\setcounter{enumiv}{6}
\setcounter{footnote}{0}
\setcounter{mpfootnote}{0}
\setcounter{part}{0}
\setcounter{chapter}{2}
\setcounter{section}{0}
\setcounter{subsection}{0}
\setcounter{subsubsection}{0}
\setcounter{paragraph}{0}
\setcounter{subparagraph}{0}
\setcounter{figure}{0}
\setcounter{table}{0}
\setcounter{Item}{0}
\setcounter{Hfootnote}{0}
\setcounter{bookmark@seq@number}{19}
\setcounter{AM@survey}{0}
\setcounter{caption@flags}{0}
\setcounter{ContinuedFloat}{0}
\setcounter{subfigure}{0}
\setcounter{subtable}{0}
\setcounter{lstnumber}{22}
\setcounter{section@level}{1}
\setcounter{lstlisting}{0}
}
