\relax 
\providecommand\hyper@newdestlabel[2]{}
\citation{Janoska2018}
\@writefile{toc}{\contentsline {chapter}{\numberline {1}Teoretická část studentské práce}{21}{chapter.8}\protected@file@percent }
\@writefile{toc}{\contentsline {section}{\numberline {1.1}PHpix}{21}{section.9}\protected@file@percent }
\acronymused{zkspi}
\acronymused{zkspi}
\@writefile{lot}{\contentsline {table}{\numberline {1.1}{\ignorespaces Parametry PHpix čipu.\relax }}{21}{table.caption.10}\protected@file@percent }
\newlabel{phpix_par_tab}{{1.1}{21}{Parametry PHpix čipu.\relax }{table.caption.10}{}}
\acronymused{zkLFSR}
\acronymused{zkLFSR}
\citation{Janoska2019}
\acronymused{zkLFSR}
\acronymused{zkLFSR}
\@writefile{toc}{\contentsline {section}{\numberline {1.2}Šupina snímače}{22}{section.11}\protected@file@percent }
\@writefile{lof}{\contentsline {figure}{\numberline {1.1}{\ignorespaces Blokové schéma šupiny\relax }}{22}{figure.caption.12}\protected@file@percent }
\newlabel{fig:modul}{{1.1}{22}{Blokové schéma šupiny\relax }{figure.caption.12}{}}
\@writefile{lot}{\contentsline {table}{\numberline {1.2}{\ignorespaces Parametry systému.\relax }}{23}{table.caption.13}\protected@file@percent }
\newlabel{system_par_tab}{{1.2}{23}{Parametry systému.\relax }{table.caption.13}{}}
\@writefile{toc}{\contentsline {section}{\numberline {1.3}FPGA modul}{23}{section.14}\protected@file@percent }
\@writefile{toc}{\contentsline {section}{\numberline {1.4}Napájení}{24}{section.15}\protected@file@percent }
\@writefile{lof}{\contentsline {figure}{\numberline {1.2}{\ignorespaces Blokové schéma napájecí části\relax }}{24}{figure.caption.16}\protected@file@percent }
\newlabel{fig:power_block}{{1.2}{24}{Blokové schéma napájecí části\relax }{figure.caption.16}{}}
\citation{ldo}
\citation{ldo}
\citation{ldo}
\@writefile{toc}{\contentsline {subsection}{\numberline {1.4.1}5V a 1.8V LDO}{25}{subsection.17}\protected@file@percent }
\newlabel{i32}{{1.2}{25}{5V a 1.8V LDO}{equation.19}{}}
\@writefile{lof}{\contentsline {figure}{\numberline {1.3}{\ignorespaces Vliv $V_{bias}$ na zvlnění\cite  {ldo} \relax }}{25}{figure.caption.20}\protected@file@percent }
\newlabel{fig:dropout}{{1.3}{25}{Vliv $V_{bias}$ na zvlnění\cite {ldo} \relax }{figure.caption.20}{}}
\citation{ldo2}
\citation{fpgapow}
\citation{fpgapow}
\@writefile{toc}{\contentsline {subsection}{\numberline {1.4.2}3.3V zdroj pro FPGA}{26}{subsection.25}\protected@file@percent }
\newlabel{eq:fmax1}{{1.7}{26}{3.3V zdroj pro FPGA}{equation.27}{}}
\@writefile{lof}{\contentsline {figure}{\numberline {1.4}{\ignorespaces 3.3V zdroj pro FPGA modul \relax }}{27}{figure.caption.26}\protected@file@percent }
\newlabel{fig:fpgapow}{{1.4}{27}{3.3V zdroj pro FPGA modul \relax }{figure.caption.26}{}}
\newlabel{eq:fsw1}{{1.8}{27}{3.3V zdroj pro FPGA}{equation.28}{}}
\newlabel{eq:l1}{{1.9}{27}{3.3V zdroj pro FPGA}{equation.29}{}}
\newlabel{eq:l1}{{1.10}{27}{3.3V zdroj pro FPGA}{equation.30}{}}
\newlabel{eq:lpeak}{{1.11}{27}{3.3V zdroj pro FPGA}{equation.31}{}}
\newlabel{fpgapowdiv}{{1.12}{27}{3.3V zdroj pro FPGA}{equation.32}{}}
\@writefile{toc}{\contentsline {subsection}{\numberline {1.4.3}66A LT3829}{27}{subsection.34}\protected@file@percent }
\@writefile{lof}{\contentsline {figure}{\numberline {1.5}{\ignorespaces Napětí(zelená) a proud(modrá) na výstupu LT8640\relax }}{28}{figure.caption.33}\protected@file@percent }
\newlabel{fig:sim1}{{1.5}{28}{Napětí(zelená) a proud(modrá) na výstupu LT8640\relax }{figure.caption.33}{}}
\@writefile{lof}{\contentsline {figure}{\numberline {1.6}{\ignorespaces 1 fáze LT3829 v konfiguraci DCR sensing\relax }}{29}{figure.caption.35}\protected@file@percent }
\newlabel{fig:bigpow1}{{1.6}{29}{1 fáze LT3829 v konfiguraci DCR sensing\relax }{figure.caption.35}{}}
\@writefile{lof}{\contentsline {figure}{\numberline {1.7}{\ignorespaces simulace pro skokovou zátěž. Napětí(zelená) a proud(modrá)\relax }}{29}{figure.caption.36}\protected@file@percent }
\newlabel{fig:loss}{{1.7}{29}{simulace pro skokovou zátěž. Napětí(zelená) a proud(modrá)\relax }{figure.caption.36}{}}
\@writefile{lof}{\contentsline {figure}{\numberline {1.8}{\ignorespaces Celková účinnost\relax }}{30}{figure.caption.37}\protected@file@percent }
\newlabel{fig:eff}{{1.8}{30}{Celková účinnost\relax }{figure.caption.37}{}}
\@setckpt{text/reseni}{
\setcounter{page}{31}
\setcounter{equation}{12}
\setcounter{enumi}{0}
\setcounter{enumii}{0}
\setcounter{enumiii}{0}
\setcounter{enumiv}{0}
\setcounter{footnote}{0}
\setcounter{mpfootnote}{0}
\setcounter{part}{0}
\setcounter{chapter}{1}
\setcounter{section}{4}
\setcounter{subsection}{3}
\setcounter{subsubsection}{0}
\setcounter{paragraph}{0}
\setcounter{subparagraph}{0}
\setcounter{figure}{8}
\setcounter{table}{2}
\setcounter{Item}{0}
\setcounter{Hfootnote}{0}
\setcounter{bookmark@seq@number}{9}
\setcounter{AM@survey}{0}
\setcounter{caption@flags}{0}
\setcounter{ContinuedFloat}{0}
\setcounter{subfigure}{0}
\setcounter{subtable}{0}
\setcounter{lstnumber}{1}
\setcounter{section@level}{2}
\setcounter{lstlisting}{0}
}
