\relax 
\providecommand\hyper@newdestlabel[2]{}
\@writefile{toc}{\contentsline {chapter}{\numberline {2}Výsledky studentské práce}{31}{chapter.38}\protected@file@percent }
\@writefile{lof}{\contentsline {figure}{\numberline {2.1}{\ignorespaces Red pitaya s modulem pro PHpix modul\relax }}{31}{figure.caption.39}\protected@file@percent }
\newlabel{fig:pitaya}{{2.1}{31}{Red pitaya s modulem pro PHpix modul\relax }{figure.caption.39}{}}
\@writefile{toc}{\contentsline {section}{\numberline {2.1}Fyzická vrstva}{32}{section.40}\protected@file@percent }
\@writefile{lof}{\contentsline {figure}{\numberline {2.2}{\ignorespaces Stavový automat pro PHpix komunikaci\relax }}{32}{figure.caption.41}\protected@file@percent }
\newlabel{fig:fsm}{{2.2}{32}{Stavový automat pro PHpix komunikaci\relax }{figure.caption.41}{}}
\@writefile{lof}{\contentsline {figure}{\numberline {2.3}{\ignorespaces Simulace vysílací části\relax }}{33}{figure.caption.42}\protected@file@percent }
\newlabel{fig:fsm1}{{2.3}{33}{Simulace vysílací části\relax }{figure.caption.42}{}}
\@writefile{lof}{\contentsline {figure}{\numberline {2.4}{\ignorespaces Simulace příjmací části\relax }}{33}{figure.caption.43}\protected@file@percent }
\newlabel{fig:fsm2}{{2.4}{33}{Simulace příjmací části\relax }{figure.caption.43}{}}
\@writefile{toc}{\contentsline {section}{\numberline {2.2}Propojení fyzické vrstvy a ARM procesoru}{34}{section.44}\protected@file@percent }
\@writefile{lof}{\contentsline {figure}{\numberline {2.5}{\ignorespaces Blokové schéma rozhraní pro PHpix\relax }}{34}{figure.caption.45}\protected@file@percent }
\newlabel{fig:iface1}{{2.5}{34}{Blokové schéma rozhraní pro PHpix\relax }{figure.caption.45}{}}
\@writefile{lof}{\contentsline {figure}{\numberline {2.6}{\ignorespaces Picoblaze\relax }}{35}{figure.caption.46}\protected@file@percent }
\newlabel{fig:iface1}{{2.6}{35}{Picoblaze\relax }{figure.caption.46}{}}
\@writefile{toc}{\contentsline {section}{\numberline {2.3}Software ARM procesoru}{36}{section.47}\protected@file@percent }
\@writefile{lof}{\contentsline {figure}{\numberline {2.7}{\ignorespaces Princip MMU\relax }}{36}{figure.caption.48}\protected@file@percent }
\newlabel{fig:mmu1}{{2.7}{36}{Princip MMU\relax }{figure.caption.48}{}}
\citation{pylib}
\@writefile{lof}{\contentsline {figure}{\numberline {2.8}{\ignorespaces Síťový klient pro příjem dat\relax }}{38}{figure.caption.83}\protected@file@percent }
\newlabel{fig:view1}{{2.8}{38}{Síťový klient pro příjem dat\relax }{figure.caption.83}{}}
\@setckpt{text/vysledky}{
\setcounter{page}{39}
\setcounter{equation}{0}
\setcounter{enumi}{0}
\setcounter{enumii}{0}
\setcounter{enumiii}{0}
\setcounter{enumiv}{0}
\setcounter{footnote}{0}
\setcounter{mpfootnote}{0}
\setcounter{part}{0}
\setcounter{chapter}{2}
\setcounter{section}{3}
\setcounter{subsection}{0}
\setcounter{subsubsection}{0}
\setcounter{paragraph}{0}
\setcounter{subparagraph}{0}
\setcounter{figure}{8}
\setcounter{table}{0}
\setcounter{Item}{0}
\setcounter{Hfootnote}{0}
\setcounter{bookmark@seq@number}{13}
\setcounter{AM@survey}{0}
\setcounter{caption@flags}{0}
\setcounter{ContinuedFloat}{0}
\setcounter{subfigure}{0}
\setcounter{subtable}{0}
\setcounter{lstnumber}{22}
\setcounter{section@level}{1}
\setcounter{lstlisting}{0}
}
