\relax 
\providecommand\hyper@newdestlabel[2]{}
\@writefile{toc}{\contentsline {chapter}{Seznam symbol\r {u}, veli\v {c}in a zkratek}{43}{section*.89}\protected@file@percent }
\newacro{zkFPGA}[\AC@hyperlink{zkFPGA}{FPGA}]{Field-programmable gate array}
\newacro{zkspi}[\AC@hyperlink{zkspi}{SPI}]{Serial Peripheral Interface}
\newacro{zkLFSR}[\AC@hyperlink{zkLFSR}{LFSR}]{Linear-feedback shift register}
\newacro{zDCDC}[\AC@hyperlink{zDCDC}{DC/DC}]{Direct-current to direct-current}
\newacro{zldo}[\AC@hyperlink{zldo}{LDO}]{Low-Dropout Regulator}
\newacro{zaxi}[\AC@hyperlink{zaxi}{AXI}]{Advanced eXtensible Interface}
\newacro{zIP}[\AC@hyperlink{zIP}{IP}]{Intelectual Property}
\newacro{Zbram}[\AC@hyperlink{Zbram}{BRAM}]{Block Random Access Memory}
\newacro{zgpio}[\AC@hyperlink{zgpio}{GPIO}]{General purpose input output}
\newacro{zmmu}[\AC@hyperlink{zmmu}{MMU}]{Memory Managment Unit}
\@setckpt{text/zkratky}{
\setcounter{page}{45}
\setcounter{equation}{0}
\setcounter{enumi}{0}
\setcounter{enumii}{0}
\setcounter{enumiii}{0}
\setcounter{enumiv}{6}
\setcounter{footnote}{0}
\setcounter{mpfootnote}{0}
\setcounter{part}{0}
\setcounter{chapter}{2}
\setcounter{section}{3}
\setcounter{subsection}{0}
\setcounter{subsubsection}{0}
\setcounter{paragraph}{0}
\setcounter{subparagraph}{0}
\setcounter{figure}{8}
\setcounter{table}{0}
\setcounter{Item}{0}
\setcounter{Hfootnote}{0}
\setcounter{bookmark@seq@number}{16}
\setcounter{AM@survey}{0}
\setcounter{caption@flags}{0}
\setcounter{ContinuedFloat}{0}
\setcounter{subfigure}{0}
\setcounter{subtable}{0}
\setcounter{lstnumber}{22}
\setcounter{section@level}{1}
\setcounter{lstlisting}{0}
}
